<?xml version="1.0" standalone="no"?>
<!DOCTYPE svg PUBLIC "-//W3C//DTD SVG 1.1//EN" "http://www.w3.org/Graphics/SVG/1.1/DTD/svg11.dtd">
<svg xmlns="http://www.w3.org/2000/svg">
<metadata>Generated by Fontastic.me</metadata>
<defs>
<font id="traffic" horiz-adv-x="512">
<font-face font-family="traffic" units-per-em="512" ascent="480" descent="-32"/>
<missing-glyph horiz-adv-x="512" />

<glyph glyph-name="fb" unicode="&#97;" d="M188 413c0-13 0-71 0-71l-51 0 0-86 51 0 0-256 106 0 0 256 72 0c0 0 6 41 9 87-9 0-80 0-80 0 0 0 0 50 0 59 0 8 11 20 23 20 11 0 35 0 58 0 0 12 0 53 0 90-30 0-64 0-79 0-111 0-109-86-109-99z"/>
<glyph glyph-name="twitter" unicode="&#98;" d="M512 415c-19-9-39-14-60-17 21 13 38 34 46 58-20-12-43-20-67-25-19 20-46 33-77 33-58 0-105-47-105-105 0-8 1-16 3-24-87 4-165 46-216 110-9-16-15-34-15-53 0-36 19-69 47-87-17 0-33 5-47 13 0-1 0-1 0-2 0-51 36-93 84-103-9-2-18-3-28-3-7 0-13 0-20 2 14-42 53-73 99-73-36-29-82-45-131-45-8 0-17 0-25 1 46-30 102-47 161-47 193 0 299 160 299 299 0 4 0 9 0 13 20 15 38 34 52 55z"/>
<glyph glyph-name="light-truck" unicode="&#99;" d="M18 196l0 218c0 12 10 22 22 22l218 0c12 0 22-10 22-22l0-218c0-4-4-7-8-7l-247 0c-4 0-7 3-7 7z m176-74c0-26-21-46-46-46-25 0-45 20-45 46 0 25 20 45 45 45 25 0 46-20 46-45z m-23 0c0 12-10 22-23 22-12 0-22-10-22-22 0-13 10-23 22-23 13 0 23 10 23 23z m-62 45l-102 0c-4 0-7-3-7-7l0-22c0-5 3-8 7-8l82 0c2 15 9 28 20 37z m323-45c0-26-21-46-46-46-25 0-45 20-45 46 0 25 20 45 45 45 25 0 46-20 46-45z m-23 0c0 12-10 22-23 22-12 0-23-10-23-22 0-13 11-23 23-23 13 0 23 10 23 23z m103 38l0-22c0-5-3-8-7-8l-59 0c-5 29-30 52-60 52-30 0-55-23-59-52l-119 0c-2 15-10 28-21 37l113 0 0 209c0 8 7 15 15 15l69 0c19 0 38-10 48-26l45-66c6-10 10-21 10-33l0-99 18 0c4 0 7-3 7-7z m-74 137l-36 51c-1 2-3 3-6 3l-55 0c-4 0-7-3-7-7l0-51c0-4 3-7 7-7l91 0c6 0 9 6 6 11z"/>
<glyph glyph-name="truck" unicode="&#100;" d="M501 375l-10 0 0 27c0 3-3 5-5 5l-44 0 0 50c0 9-7 16-16 16l-340 0c-9 0-16-7-16-16l0-50-43 0c-3 0-6-2-6-5l0-27-10 0c-6 0-11-5-11-10l0-56c0-6 5-11 11-11l10 0 0-26c0-3 3-6 6-6l43 0 0-46-1 0c-9 0-16-7-16-16l0-62c0-5 3-10 7-13-4-3-7-7-7-13l0-25c0-8 7-15 16-15l8 0 0-26c0-6 7-11 16-11l54 0c9 0 16 5 16 11l0 26 186 0 0-26c0-6 7-11 16-11l54 0c9 0 16 5 16 11l0 26 8 0c9 0 16 7 16 15l0 25c0 6-3 10-7 13 4 3 7 8 7 13l0 62c0 9-7 16-16 16l-1 0 0 46 44 0c2 0 5 3 5 6l0 26 10 0c6 0 11 5 11 11l0 56c0 5-5 10-11 10z m-431-98l-38 0 0 21 10 0c6 0 11 5 11 11l0 56c0 5-5 10-11 10l-10 0 0 21 38 0z m23-188c-8 0-15 6-15 14 0 8 7 15 15 15 8 0 15-7 15-15 0-8-7-14-15-14z m39 0c-8 0-15 6-15 14 0 8 7 15 15 15 8 0 15-7 15-15 0-8-7-14-15-14z m17 60l-71 0 0 43 71 0z m191-22l-168 0 0 20 168 0z m0 31l-168 0 0 24 168 0z m0 35l-168 0 0 24 168 0z m0 35l-168 0 0 24 168 0z m-239 100l0 113 310 0 0-113z m279-239c-8 0-15 6-15 14 0 8 7 15 15 15 8 0 15-7 15-15 0-8-7-14-15-14z m39 0c-8 0-15 6-15 14 0 8 7 15 15 15 8 0 15-7 15-15 0-8-7-14-15-14z m15 60l-71 0 0 43 71 0z m46 226l-10 0c-6 0-11-5-11-10l0-56c0-6 5-11 11-11l10 0 0-21-38 0 0 119 38 0z"/>
<glyph glyph-name="bus" unicode="&#101;" d="M16 367l16 0 0-96-16 0c-9 0-16 7-16 16l0 64c0 9 7 16 16 16z m482 0l-16 0 0-96 16 0c9 0 16 7 16 16l0 64c0 9-7 16-16 16z m-48 33l0-290c0-18-14-32-32-32l0-32c0-18-15-32-32-32l-32 0c-18 0-33 14-33 32l0 32-128 0 0-32c0-18-15-32-32-32l-32 0c-18 0-33 14-33 32l0 32c-17 0-32 15-32 32l0 290c0 53 43 96 97 96l193 0c53 0 96-43 96-96z m-257 32l128 0 0 32-128 0z m-32-290c0 18-15 33-32 33-18 0-33-15-33-33 0-17 15-32 33-32 17 0 32 15 32 32z m257 0c0 18-15 33-32 33-18 0-32-15-32-33 0-17 14-32 32-32 17 0 32 15 32 32z m0 258l-322 0 0-193 322 0z"/>
<glyph glyph-name="scooter" unicode="&#102;" d="M255 181c-25 0-45-21-45-45l0-91c0-25 20-45 45-45 25 0 45 20 45 45l0 91c0 24-20 45-45 45z m163 275l-87 0c-10 32-40 56-76 56-36 0-66-24-76-56l-86 0c-12 0-22-10-22-23 0-12 10-22 22-22l87 0c5-19 18-35 35-45-61-18-106-74-106-141l0-117c0-21 17-38 37-38l30 0 0 64c0 44 36 80 80 80 44 0 80-36 80-80l0-64 30 0c21 0 37 17 37 38l0 116c0 67-45 124-105 141 17 10 29 26 35 45l86 0c12 0 23 10 23 22-2 14-12 24-24 24z m-163-69c-25 0-45 21-45 45 0 25 20 45 45 45 25 0 45-20 45-45 1-24-19-45-45-45z"/>
<glyph glyph-name="car" unicode="&#103;" d="M510 325c-3 3-6 5-10 5l-50 0c-13 32-29 64-47 76-63 41-230 41-293 0-19-12-35-44-47-76l-50 0c-4 0-8-2-10-5-3-3-4-7-3-11l8-36c1-6 6-10 13-10l14 0c-14-17-21-38-21-58 0-26 10-49 27-66 1 0 1 0 1 0l0-50c0-11 9-20 20-20l46 0c11 0 19 9 19 20l0 20 258 0 0-20c0-11 9-20 20-20l46 0c11 0 20 9 20 20l0 49c19 17 28 41 28 65 0 21-7 43-23 60l16 0c6 0 12 4 13 10l7 36c1 4 0 8-2 11z m-379 48c51 33 200 33 250 0 10-6 23-32 34-64l-318 0c12 32 24 58 34 64z m-59-168c0 21 18 38 39 38 22 0 39-17 39-38 0-22-17-39-39-39-21 0-39 17-39 39z m330-39c-21 0-39 17-39 39 0 21 18 38 39 38 22 0 39-17 39-38 0-22-17-39-39-39z"/>
<glyph glyph-name="auto-rickshaw" unicode="&#104;" d="M505 206c5 2 7 7 7 12l0 44c0 5-2 9-7 12-3 2-8 3-12 4-6 28-23 68-52 104-34 42-97 92-198 92l-211 0c-18 0-32-14-32-32l0-311c0-10 5-20 13-26 0-2 0-4 0-6 0-34 28-61 62-61 34 0 61 27 61 61l224 0c0-34 27-61 62-61 34 0 61 27 61 61 0 6-1 12-2 17l15 0c6 0 11 4 14 9 3 5 2 11-1 16-10 15-22 23-34 28 6 10 11 21 14 31 6 2 11 3 16 6z m-430-133c-15 0-27 12-27 26 0 15 12 27 27 27 14 0 26-12 26-27 0-14-12-26-26-26z m117 134c0 0-21 0-46 0-25 0-10 76-74 76l0 136 120 0z m62 91l0 121 1 0c46 0 93-24 130-68 14-16 26-35 36-53z m168-225c-15 0-27 12-27 26 0 15 12 27 27 27 14 0 26-12 26-27 0-14-12-26-26-26z"/>
<glyph glyph-name="flag" unicode="&#105;" d="M439 319l-354 164 0 20c0 5-3 9-8 9-5 0-9-4-9-9l0-494c0-5 4-9 9-9 5 0 8 4 8 9l0 156 353 139c4 1 6 4 6 7 0 4-2 7-5 8z"/>
<glyph glyph-name="hamburger" unicode="&#106;" d="M0 443l513 0 0-43-513 0z m0-164l513 0 0-44-513 0z m0-167l513 0 0-44-513 0z"/>
</font></defs></svg>
